999156 999751 396
999445 999773 290
999270 999596 396
999654 999651 153
999117 999227 321
999527 999773 290
999946 999800 259
999793 999027 396
999269 999796 396
999055 999580 396
999221 999234 184
999630 999290 396
999302 999085 396
999433 999925 290
999312 999617 290
999494 999783 290
999074 999548 396
999137 999035 277
999731 999377 290
999670 999492 290
999951 999022 396
999590 999569 290
999513 999077 396
999972 999630 290
999708 999177 396
999517 999318 290
999568 999689 290
999061 999366 396
999362 999453 277
999567 999810 290
999854 999836 259
999004 999444 396
999619 999290 396
999724 999007 396
999981 999656 290
999254 999594 396
999274 999795 396
999888 999327 290
999795 999276 396
999902 999456 290
999139 999013 277
999088 999816 396
999065 999738 396
999538 999932 290
999219 999285 339
999751 999513 290
999090 999725 396
999829 999998 259
999261 999229 228
999320 999392 259
999846 999498 290
999582 999860 290
999974 999051 396
999957 999701 259
999376 999774 290
999678 999061 396
999796 999908 259
999273 999695 396
999354 999640 290
999400 999869 290
999710 999232 396
999106 999537 396
999211 999220 184
999254 999766 396
999110 999243 321
999452 999592 290
999436 999426 140
999283 999244 339
999632 999027 396
999715 999562 290
999619 999702 290
999186 999952 396
999129 999314 396
999276 999342 396
999103 999071 277
999470 999510 290
999661 999588 290
999558 999661 290
999875 999953 259
999709 999625 290
999561 999857 290
999797 999351 290
999834 999237 396
999730 999016 396
999055 999610 396
999305 999908 290
999495 999437 290
999720 999391 290
999198 999826 396
999935 999304 290
999211 999864 396
999776 999453 290
999799 999899 259
999085 999404 396
999792 999610 290
999342 999772 290
999368 999466 277
999623 999129 396
999734 999587 290
999787 999157 396
471 126 144
457 6 144
958 981 143
558 22 144
720 682 171
784 261 171
571 901 179
554 847 171
599 45 144
607 241 144
871 420 179
589 37 144
262 840 171
28 678 145
480 204 144
736 662 171
867 500 171
843 492 171
1 336 144
263 207 128
217 38 125
293 489 144
441 822 171
426 561 142
4 814 171
546 98 144
443 10 144
748 969 179
581 999 179
994 890 174
615 941 179
893 867 179
900 828 179
64 913 179
408 967 179
407 403 41
212 32 125
12 348 144
566 504 137
720 479 171
145 974 179
506 941 179
50 834 171
75 39 116
621 180 144
473 258 144
803 783 122
464 48 144
740 17 171
641 849 171
872 375 179
186 985 179
694 486 145
349 348 33
437 318 144
974 135 179
686 782 171
756 845 153
838 578 171
134 634 144
13 133 122
564 54 144
285 716 171
249 64 128
512 749 171
153 441 144
262 810 171
871 388 179
738 987 179
744 39 171
144 843 171
163 843 171
353 538 142
666 606 145
349 612 142
317 328 144
146 664 145
841 862 148
801 36 171
293 539 144
703 465 171
862 749 153
403 306 144
359 490 142
481 607 142
522 122 144
81 152 122
108 337 144
334 108 144
926 913 130
953 665 179
467 408 134
642 563 132
858 711 153
519 516 124
735 959 179
709 609 171
480 704 171
707 189 171
859 943 179
